<?xml version="1.0"?>

<robot name="quadrotor" xmlns:xacro="http://www.ros.org/wiki/xacro">
    <xacro:include filename="$(find turtlebot3_description)/urdf/turtlebot3_waffle.urdf.xacro" />
    <xacro:include filename="$(find turtlebot3_description)/urdf/turtlebot3_waffle.gazebo.xacro" />
</robot>

